{
  "buildType": "amazon-ebs",
  "nodeType": "auth",
  "nodeName": "permission-node",
  "networkId": 2221,
  "targetGasLimit": 2000000000,
  "gasPrice": 476190476190,
  "bootNodesUrl": "https://s3.amazonaws.com/ask-blockchain/testnet/bootnodes.json",
  "genesisDataUrl": "https://s3.amazonaws.com/ask-blockchain/testnet/genesis.json",
  "ethNetStatHost": "",
  "ethNetStatPort": "",
  "ethNetStatSecret": "",
  "blockchainPort": 20204,
  "additionalArgs": "",
  "natIp": ""
}
